{
  "users": [
    {
      "id": 1782974,
      "first_name": "Bruce",
      "last_name": "Wayne",
      "email": "batman@gotham.com",
      "weekly_capacity": 126000,
      "roles": [
        "Lead Engineer"
      ],
      "is_active":true
    },
    {
      "id": 1782959,
      "first_name": "Dick",
      "last_name": "Grayson",
      "email": "robin@gotham.com",
      "weekly_capacity": 126000,
      "roles": [
        "Software Engineer"
      ],
      "is_active":true
    }
  ],
  "per_page":2,
  "total_pages":2,
  "total_entries":3,
  "next_page":2,
  "previous_page":null,
  "page":1
}
