{
  "users": [
    {
      "id": 1710101,
      "first_name": "Alfred",
      "last_name": "Pennyworth",
      "email": "alfred@gotham.com",
      "weekly_capacity": 126000,
      "roles": [
        "Senior Software Engineer"
      ],
      "is_active":true
    }
  ],
  "per_page":2,
  "total_pages":2,
  "total_entries":3,
  "next_page":null,
  "previous_page":1,
  "page":2
}
